<?xml version="1.0" standalone="no"?>
<!DOCTYPE svg PUBLIC "-//W3C//DTD SVG 20010904//EN"
 "http://www.w3.org/TR/2001/REC-SVG-20010904/DTD/svg10.dtd">
<svg version="1.0" xmlns="http://www.w3.org/2000/svg"
 width="780.000000pt" height="780.000000pt" viewBox="0 0 780.000000 780.000000"
 preserveAspectRatio="xMidYMid meet">
<metadata>
Created by potrace 1.16, written by Peter Selinger 2001-2019
</metadata>
<g transform="translate(0.000000,780.000000) scale(0.100000,-0.100000)"
fill="#000000" stroke="none">
<path d="M3379 5585 c-57 -31 -59 -42 -59 -319 l0 -254 -95 -47 c-256 -126
-435 -287 -539 -485 -87 -165 -119 -408 -77 -584 55 -231 225 -420 430 -480
136 -40 221 3 221 111 0 60 -39 99 -123 122 -179 49 -284 191 -295 398 -10
204 75 394 237 531 67 57 221 153 232 146 5 -3 9 -305 9 -698 l-1 -692 -94
-27 c-165 -46 -306 -126 -412 -233 -65 -66 -87 -113 -76 -166 8 -40 55 -84 97
-92 49 -9 91 12 155 78 121 127 296 195 543 212 102 7 223 -5 396 -38 l112
-22 0 -124 0 -124 -77 9 c-132 14 -359 8 -453 -11 -209 -44 -444 -169 -515
-275 -46 -67 -21 -157 52 -188 51 -21 98 -5 170 58 123 108 295 167 508 176
161 6 261 -9 510 -77 482 -131 804 -143 1022 -39 74 35 103 73 103 134 0 64
-38 109 -102 120 -28 5 -50 0 -100 -24 -152 -73 -390 -67 -740 20 l-128 31 0
132 0 131 247 0 c242 1 250 1 338 29 173 53 235 102 235 188 0 43 -4 54 -33
83 -52 52 -92 54 -169 11 -93 -51 -182 -68 -368 -66 -85 0 -175 4 -200 8 l-45
7 -5 942 -5 941 -23 25 c-45 48 -69 51 -215 33 -110 -14 -225 -37 -464 -93
-23 -5 -23 -5 -23 121 l0 126 405 0 c449 0 458 1 495 62 24 39 25 78 5 122
-32 68 -19 66 -567 66 -406 -1 -498 -3 -519 -15z m661 -1466 l0 -821 -27 7
c-96 24 -343 55 -439 55 -12 0 -14 62 -14 350 l0 350 126 0 c141 0 184 12 209
61 19 37 19 92 -1 130 -24 47 -66 59 -209 59 l-125 0 0 260 0 260 28 11 c79
30 368 97 425 98 l27 1 0 -821z"/>
</g>
</svg>
